single_PE_wMEM2.0/dump.vcd
$date
    Oct 22, 2025  20:34:58
$end
$version
    TOOL:	ncsim(64)	15.20-s079
$end
$timescale
    10 ps
$end

$scope module tb $end
$var reg      64 !    d_in [63:0] $end
$var reg       1 "    nicEn  $end
$var reg       1 #    nicWrEn  $end
$var reg       1 $    clk  $end
$var reg       1 %    reset  $end
$var wire     64 &    net_do [63:0] $end
$var reg       1 '    net_ro  $end
$var wire      1 (    net_so  $end
$var reg       1 )    net_polarity  $end
$var wire     64 *    d_out [63:0] $end
$var reg       2 +    addr [1:0] $end
$var reg      64 ,    net_di [63:0] $end
$var reg       1 -    net_si  $end
$var wire      1 .    net_ri  $end
$var wire      1 /    in_status  $end
$var wire      1 0    out_status  $end
$var wire      1 1    buff_en  $end

$scope module uut $end
$var wire      1 2    clk  $end
$var wire      1 3    reset  $end
$var wire      2 4    addr [1:0] $end
$var wire     64 5    d_in [63:0] $end
$var reg      64 6    d_out [63:0] $end
$var wire      1 7    nicEn  $end
$var wire      1 8    nicWrEn  $end
$var wire      1 9    net_si  $end
$var wire      1 .    net_ri  $end
$var wire     64 :    net_di [63:0] $end
$var wire      1 (    net_so  $end
$var wire      1 ;    net_ro  $end
$var reg      64 <    net_do [63:0] $end
$var wire      1 =    net_polarity  $end
$var reg       1 >    out_status  $end
$var reg       1 ?    in_status  $end
$var wire      1 1    buff_en  $end
$var wire      1 @    polarity_vc_match  $end
$var wire      1 A    out_buff_en  $end
$var reg      64 B    input_channel_buf_out [63:0] $end
$upscope $end

$upscope $end

$enddefinitions $end
$dumpvars
b0 !
0"
0#
0$
1%
b0 &
0'
0(
1)
b0 *
b0 +
b0 ,
0-
1.
0/
00
01
02
13
b0 4
b0 5
b0 6
07
08
09
b0 :
0;
b0 <
1=
0>
0?
1@
0A
b0 B
$end
#100
1$
12
#200
0$
02
#300
1$
12
#400
0%
1"
1#
b10011010010 !
b10 +
1'
b11011001010 ,
0$
02
b11011001010 :
1;
b10 4
b10011010010 5
18
17
03
1A
11
#500
1$
12
b10011010010 <
1>
0A
1(
10
b10011010010 &
01
1A
11
#600
b10001010111 !
0)
0$
02
0=
b10001010111 5
0@
0(
0A
01
#700
1$
12
#800
b100010101110 !
1)
0$
02
1=
b100010101110 5
1@
1(
1A
11
#900
1$
12
b100010101110 <
b100010101110 &
#1000
b110100000101 !
0$
02
b110100000101 5
#1100
1$
12
b110100000101 <
b110100000101 &
#1200
b1000101011100 !
0$
02
b1000101011100 5
#1300
1$
12
b1000101011100 <
b1000101011100 &
#1400
b1010110110011 !
b0 +
0(
0$
02
0A
b0 4
b1010110110011 5
01
#1500
1$
12
#1600
b1101000001010 !
b10 +
0'
0$
02
0;
b10 4
b1101000001010 5
#1700
1$
12
#1800
0#
b1010110110011 !
b0 +
1'
1-
0$
02
19
1;
b0 4
b1010110110011 5
08
1(
#1900
1$
12
1?
b11011001010 B
0>
b11011001010 6
0(
b11011001010 *
0.
00
1/
#2000
b1111001100001 !
b1 +
0'
b10111010100 ,
0$
02
b10111010100 :
0;
b1 4
b1111001100001 5
b1 6
b1 *
#2100
1$
12
b10111010100 B
#2200
b11 +
0$
02
b11 4
b0 6
b0 *
#2300
1$
12
#2400
b0 +
0$
02
b0 4
b10111010100 6
b10111010100 *
#2500
1$
12
#2600
0-
0$
02
09
#2700
1$
12
0?
1.
0/
